…
by_row(scenario_df, function(row) {
    set.seed(1234567)
    ignore_obs <- setdiff(1:length(sample_times_rich), sparser_scenarios[[row$scenario]])
    ignore <- paste0("IGNORE=(OBSNUM.EQN.", ignore_obs, ")", collapse = " ")
    write_file(
    infuse(modt, 
           chain_number = row$chain, 
           seed = round(runif(1, 1000, 100000), 0),
           ignore = ignore,
           scenario = row$scenario), 
    file.path("..", "modeling", paste0("run", pad_left(row$scenario_num, 3), "c", row$chain, ".mod")))
    })
#> # A tibble: 24 × 4
#>   chain scenario scenario_num            .out
#>   <int>   <fctr>        <dbl>          <list>
#> 1     1      s2d            8 <S3: character>
#> 2     2      s2d            8 <S3: character>
#> 3     3      s2d            8 <S3: character>
#> 4     4      s2d            8 <S3: character>
#> 5     1    s1dpt            9 <S3: character>
#> 6     2    s1dpt            9 <S3: character>
#> # ... with 18 more rows
```
…
